<?xml version="1.0" encoding="utf-8"?>
<!-- Generator: Adobe Illustrator 23.0.2, SVG Export Plug-In . SVG Version: 6.00 Build 0)  -->
<svg version="1.1" id="Layer_1" xmlns="http://www.w3.org/2000/svg" xmlns:xlink="http://www.w3.org/1999/xlink" x="0px" y="0px"
	 viewBox="0 0 210 44" style="enable-background:new 0 0 210 44;" xml:space="preserve">
<style type="text/css">
	.st0{fill:#002878;}
	.st1{fill:#F7941E;}
	.st2{fill:#959390;}
	.st3{fill:#CCCCCE;}
	.st4{fill:#54565A;}
</style>
<g>
	<path class="st0" d="M14.3,33.5v-2c3.6,0,6.6-2.9,6.6-6.6c0-5.8-4.4-9.9-7.1-11.5C9,10.7,3.9,11.6,2,12v15.2H0V10.5l0.7-0.2
		c0.3-0.1,7.5-2.5,14.2,1.4c3,1.7,8.1,6.5,8.1,13.2C22.9,29.7,19.1,33.5,14.3,33.5z"/>
	<path class="st1" d="M14.3,42.7v-2c6.8,0,12.3-5.5,12.3-12.3V12c-1.8-0.5-7-1.3-11.8,1.4c-2.6,1.5-7.1,5.7-7.1,11.5
		c0,3.6,2.9,6.6,6.6,6.6v2c-4.7,0-8.6-3.9-8.6-8.6c0-6.7,5.1-11.5,8.1-13.2c6.7-3.9,13.9-1.5,14.2-1.4l0.7,0.2v17.8
		C28.7,36.2,22.2,42.7,14.3,42.7z"/>
	<g>
		<path class="st1" d="M37.9,17.7c0.7-0.5,1.6-0.7,2.6-0.7c0.9,0,1.7,0.2,2.4,0.6s1.3,1.1,1.7,2c0.4-0.8,1.1-1.5,1.9-2
			c0.8-0.5,1.7-0.7,2.6-0.7c0.8,0,1.6,0.1,2.2,0.4c0.6,0.3,1.1,0.7,1.5,1.1c0.4,0.5,0.7,1,0.9,1.7c0.2,0.6,0.3,1.3,0.3,2.1v8.1h-2.6
			V23c0-0.5,0-1-0.1-1.5s-0.2-0.9-0.5-1.3c-0.2-0.4-0.5-0.7-0.9-0.9c-0.4-0.2-0.8-0.3-1.4-0.3c-0.6,0-1.1,0.1-1.5,0.4
			c-0.4,0.2-0.8,0.6-1,1c-0.3,0.4-0.5,0.8-0.6,1.3s-0.2,1-0.2,1.5v7.1h-2.6v-7.8c0-0.5,0-1-0.1-1.4S42.3,20.3,42,20
			c-0.2-0.3-0.5-0.5-0.9-0.7S40.3,19,39.8,19c-1,0-1.8,0.4-2.4,1.2c-0.6,0.8-1,1.8-1,3.1v7h-2.6V20.1c0-0.4,0-0.8,0-1.4s0-1-0.1-1.5
			h2.5c0,0.3,0.1,0.7,0.1,1.1s0,0.8,0,1h0.1C36.7,18.8,37.2,18.2,37.9,17.7"/>
	</g>
	<g>
		<path class="st1" d="M63.3,27.6L63.3,27.6L67,17.3h2.8l-6.4,16.2c-0.2,0.6-0.5,1-0.7,1.5c-0.3,0.4-0.6,0.8-0.9,1.1
			c-0.4,0.3-0.8,0.5-1.2,0.7c-0.5,0.2-1,0.2-1.7,0.2c-0.3,0-0.6,0-0.8,0c-0.3,0-0.6-0.1-0.9-0.2l0.2-2.3c0.4,0.1,0.9,0.2,1.3,0.2
			c0.7,0,1.2-0.2,1.5-0.6c0.3-0.4,0.6-0.9,0.9-1.6l0.8-2.2l-5.6-13.1h2.9L63.3,27.6"/>
	</g>
	<g>
		<path class="st0" d="M89.2,27.4c-0.8,1.1-1.8,1.9-3,2.6s-2.7,1-4.5,1c-1.5,0-2.9-0.3-4.1-0.8c-1.3-0.5-2.4-1.2-3.3-2.1
			s-1.6-2-2.1-3.3s-0.8-2.7-0.8-4.2c0-1.5,0.3-2.9,0.8-4.2s1.3-2.3,2.2-3.2c0.9-0.9,2-1.6,3.3-2.1c1.3-0.5,2.7-0.7,4.2-0.7
			c0.7,0,1.3,0.1,2,0.2c0.7,0.1,1.3,0.3,2,0.6c0.6,0.3,1.2,0.6,1.7,1s1,0.8,1.3,1.3l-2.2,1.7c-0.5-0.7-1.2-1.2-2-1.6
			c-0.9-0.4-1.8-0.7-2.8-0.7c-1.1,0-2.2,0.2-3.1,0.6c-0.9,0.4-1.7,1-2.3,1.7c-0.6,0.7-1.1,1.6-1.5,2.5c-0.4,1-0.5,2-0.5,3
			c0,1.1,0.2,2.1,0.5,3.1s0.8,1.8,1.5,2.5c0.6,0.7,1.4,1.3,2.3,1.7c0.9,0.4,1.9,0.6,3.1,0.6c1.1,0,2.1-0.2,3-0.7
			c0.9-0.4,1.7-1.1,2.2-1.9L89.2,27.4"/>
	</g>
	<g>
		<path class="st0" d="M100,24.2c-0.6,0-1.3,0-2,0.1s-1.3,0.2-1.9,0.3c-0.6,0.2-1,0.4-1.4,0.7c-0.4,0.3-0.6,0.8-0.6,1.3
			c0,0.4,0.1,0.7,0.2,1c0.2,0.3,0.4,0.5,0.6,0.6c0.3,0.2,0.5,0.3,0.9,0.3c0.3,0.1,0.6,0.1,1,0.1c1.2,0,2.2-0.4,2.8-1.1
			c0.7-0.7,1-1.6,1-2.8V24H100V24.2z M100.6,21.9c0-1-0.3-1.7-0.9-2.2S98.3,19,97.3,19c-0.7,0-1.4,0.1-2.1,0.4S94,20,93.6,20.5
			l-1.4-1.7c0.6-0.6,1.4-1.1,2.4-1.4c0.9-0.3,1.9-0.5,3-0.5c0.9,0,1.8,0.1,2.4,0.4c0.7,0.3,1.3,0.6,1.7,1.1c0.4,0.5,0.8,1,1,1.6
			s0.3,1.3,0.3,2v5.7c0,0.4,0,0.9,0,1.4s0.1,0.9,0.2,1.2h-2.4c-0.1-0.6-0.2-1.3-0.2-1.9h-0.1c-0.5,0.7-1.1,1.2-1.8,1.6
			c-0.7,0.4-1.6,0.6-2.6,0.6c-0.5,0-1.1-0.1-1.6-0.2c-0.6-0.1-1.1-0.4-1.5-0.7c-0.5-0.3-0.8-0.7-1.1-1.2c-0.3-0.5-0.5-1.2-0.5-1.9
			c0-1,0.3-1.8,0.8-2.4s1.2-1,2.1-1.3s1.8-0.5,2.9-0.6s2.2-0.1,3.3-0.1L100.6,21.9"/>
	</g>
	<g>
		<path class="st0" d="M106.9,18.8c0-0.6,0-1-0.1-1.5h2.5c0,0.3,0.1,0.7,0.1,1.1s0,0.8,0,1.1h0.1c0.4-0.8,0.9-1.4,1.6-1.9
			s1.5-0.7,2.4-0.7c0.4,0,0.7,0,1,0.1l-0.1,2.4c-0.4-0.1-0.8-0.1-1.2-0.1c-0.6,0-1.2,0.1-1.6,0.3c-0.5,0.2-0.8,0.5-1.1,0.9
			c-0.3,0.4-0.5,0.8-0.7,1.3c-0.1,0.5-0.2,1-0.2,1.6v6.9H107V20.1C106.9,19.8,106.9,19.3,106.9,18.8"/>
	</g>
	<g>
		<path class="st0" d="M126,22.7c0-0.5-0.1-1-0.3-1.5c-0.2-0.5-0.4-0.8-0.7-1.2c-0.3-0.3-0.7-0.6-1.1-0.8c-0.5-0.2-1-0.3-1.6-0.3
			s-1.1,0.1-1.6,0.3c-0.5,0.2-0.9,0.5-1.3,0.8s-0.7,0.7-0.9,1.2c-0.2,0.5-0.4,0.9-0.4,1.5H126z M128.7,23.8c0,0.1,0,0.3,0,0.4
			s0,0.3,0,0.4h-10.4c0,0.5,0.1,1.1,0.4,1.6c0.2,0.5,0.5,0.9,0.9,1.3s0.8,0.6,1.3,0.8c0.5,0.2,1,0.3,1.6,0.3c0.9,0,1.6-0.2,2.3-0.6
			c0.6-0.4,1.2-0.9,1.5-1.4l1.8,1.5c-0.7,0.9-1.5,1.6-2.5,2.1c-1,0.4-2,0.7-3.2,0.7c-1,0-1.9-0.2-2.8-0.5c-0.8-0.3-1.6-0.8-2.2-1.4
			s-1.1-1.3-1.4-2.2c-0.3-0.8-0.5-1.8-0.5-2.8s0.2-2,0.5-2.8c0.3-0.9,0.8-1.6,1.4-2.2s1.3-1.1,2.2-1.4c0.8-0.3,1.7-0.5,2.7-0.5
			s1.8,0.2,2.6,0.5c0.8,0.3,1.5,0.8,2,1.4s1,1.3,1.3,2.1C128.5,21.8,128.7,22.7,128.7,23.8"/>
	</g>
	<rect x="139.3" class="st2" width="0.9" height="44"/>
	<path class="st3" d="M178.6,9.7c-14.1-2.5-24.1,3.9-29.2,8.2l4,2.5c7.1-5.6,15.5-7.3,18.3-7.5c19.3-1.3,28.7,12.5,28.7,12.5
		C195.7,16.9,186,11.3,178.6,9.7z"/>
	<g>
		<g>
			<path class="st4" d="M180.6,30V19.3l0,0L175.1,30h-1.2l-5.5-10.8l0,0V30h-1.3V17.6h1.9l5.5,10.8l5.5-10.8h1.8V30H180.6z"/>
			<path class="st1" d="M183.6,17.6h3.7l3.6,9.5l3.6-9.5h3.7L192.7,30h-3.6L183.6,17.6z"/>
			<path class="st4" d="M200,30V17.6h9.9v1.2h-8.6V23h8.3v1.2h-8.3v4.7h8.7V30H200z"/>
		</g>
	</g>
	<path class="st3" d="M187,31.9c0,0-3.9,4.7-12.2,4.7s-11.4-4.7-11.4-4.7S173.4,38.5,187,31.9z"/>
</g>
</svg>
